{
  "swagger": "2.0",
  "info": {},
  "paths": {
    "/delete": {
      "post": {
        "tags": [
          "vacancy"
        ],
        "summary": "Удалить вакансию.",
        "operationId": "vacancyDeleteRequest",
        "parameters": [
          {
            "name": "Body",
            "in": "body",
            "schema": {
              "$ref": "#/definitions/IDVacancy"
            }
          }
        ],
        "responses": {
          "200": {
            "$ref": "#/responses/vacancyDeleteResponse"
          }
        }
      }
    },
    "/get": {
      "post": {
        "tags": [
          "vacancy"
        ],
        "summary": "Поиск вакансии по ID.",
        "operationId": "vacancyIdGetRequest",
        "parameters": [
          {
            "name": "Body",
            "in": "body",
            "schema": {
              "$ref": "#/definitions/IDVacancy"
            }
          }
        ],
        "responses": {
          "200": {
            "$ref": "#/responses/vacancyIdGetResponse"
          }
        }
      }
    },
    "/list": {
      "get": {
        "tags": [
          "vacancy"
        ],
        "summary": "Список всех вакансий.",
        "operationId": "vacancyListRequest",
        "responses": {
          "200": {
            "$ref": "#/responses/vacancyListResponse"
          }
        }
      }
    },
    "/search": {
      "post": {
        "tags": [
          "vacancy"
        ],
        "summary": "Создание вакансии.",
        "operationId": "vacancySearchRequest",
        "parameters": [
          {
            "name": "Body",
            "in": "body",
            "schema": {
              "$ref": "#/definitions/Query"
            }
          }
        ],
        "responses": {
          "200": {
            "$ref": "#/responses/vacancySearchResponse"
          }
        }
      }
    }
  },
  "definitions": {
    "HiringOrganization": {
      "type": "object",
      "properties": {
        "@type": {
          "type": "string",
          "x-go-name": "Type"
        },
        "logo": {
          "type": "string",
          "x-go-name": "Logo"
        },
        "name": {
          "type": "string",
          "x-go-name": "Name"
        },
        "sameAs": {
          "type": "string",
          "x-go-name": "SameAs"
        }
      },
      "x-go-package": "gitlab.com/a3buka/go-kata/module4/selenium/homework/internal/models"
    },
    "IDVacancy": {
      "type": "object",
      "properties": {
        "id": {
          "type": "string",
          "x-go-name": "ID"
        }
      },
      "x-go-package": "gitlab.com/a3buka/go-kata/module4/selenium/homework/internal/models"
    },
    "Identifier": {
      "type": "object",
      "properties": {
        "@type": {
          "type": "string",
          "x-go-name": "Type"
        },
        "name": {
          "type": "string",
          "x-go-name": "Name"
        },
        "value": {
          "type": "string",
          "x-go-name": "Value"
        }
      },
      "x-go-package": "gitlab.com/a3buka/go-kata/module4/selenium/homework/internal/models"
    },
    "JobLocation": {
      "type": "object",
      "properties": {
        "@type": {
          "type": "string",
          "x-go-name": "Type"
        },
        "address": {
          "type": "string",
          "x-go-name": "Address"
        }
      },
      "x-go-package": "gitlab.com/a3buka/go-kata/module4/selenium/homework/internal/models"
    },
    "Query": {
      "type": "object",
      "properties": {
        "query": {
          "type": "string",
          "x-go-name": "Query"
        }
      },
      "x-go-package": "gitlab.com/a3buka/go-kata/module4/selenium/homework/internal/models"
    },
    "Vacancy": {
      "type": "object",
      "properties": {
        "@context": {
          "type": "string",
          "x-go-name": "Context"
        },
        "@type": {
          "type": "string",
          "x-go-name": "Type"
        },
        "Id": {
          "type": "string"
        },
        "datePosted": {
          "type": "string",
          "x-go-name": "DatePosted"
        },
        "description": {
          "type": "string",
          "x-go-name": "Description"
        },
        "employmentType": {
          "type": "string",
          "x-go-name": "EmploymentType"
        },
        "hiringOrganization": {
          "$ref": "#/definitions/HiringOrganization"
        },
        "identifier": {
          "$ref": "#/definitions/Identifier"
        },
        "jobLocation": {
          "type": "array",
          "items": {
            "$ref": "#/definitions/JobLocation"
          },
          "x-go-name": "JobLocation"
        },
        "title": {
          "type": "string",
          "x-go-name": "Title"
        },
        "validThrough": {
          "type": "string",
          "x-go-name": "ValidThrough"
        }
      },
      "x-go-package": "gitlab.com/a3buka/go-kata/module4/selenium/homework/internal/models"
    }
  },
  "responses": {
    "vacancyDeleteResponse": {
      "description": "",
      "schema": {
        "$ref": "#/definitions/Vacancy"
      }
    },
    "vacancyIdGetResponse": {
      "description": "",
      "schema": {
        "$ref": "#/definitions/Vacancy"
      }
    },
    "vacancyListResponse": {
      "description": "",
      "schema": {
        "type": "array",
        "items": {
          "$ref": "#/definitions/Vacancy"
        }
      }
    },
    "vacancySearchResponse": {
      "description": "",
      "schema": {
        "$ref": "#/definitions/Vacancy"
      }
    }
  }
}